{
  "project": {
    "version": "1.0.0-beta.24",
    "name": "appcenteradmin"
  },
  "apps": [
    {
      "root": "src",
      "outDir": "dist",
      "assets": [
        "assets",
        "appsicon.png"
      ],
      "index": "index.html",
      "main": "main.ts",
      "test": "test.ts",
      "tsconfig": "tsconfig.json",
      "prefix": "app",
      "mobile": false,
      "styles": [
        "styles.css",
        "./assets/global/plugins/font-awesome/css/font-awesome.min.css",
        "./assets/global/plugins/simple-line-icons/simple-line-icons.min.css",
        "./assets/global/plugins/bootstrap/css/bootstrap.min.css",
        "./assets/global/plugins/uniform/css/uniform.default.css",
        "./assets/global/plugins/bootstrap-switch/css/bootstrap-switch.min.css",
        "./assets/global/plugins/bootstrap-fileinput/bootstrap-fileinput.css",
        "./assets/global/plugins/bootstrap-daterangepicker/daterangepicker.min.css",
        "./assets/global/plugins/morris/morris.css",
        "./assets/global/css/components.min.css",
        "./assets/global/css/plugins.min.css",
        "./assets/pages/css/login.min.css",
        "./assets/layouts/layout4/css/layout.min.css",
        "./assets/layouts/layout4/css/themes/light.min.css",
        "./assets/layouts/layout4/css/custom.min.css",
        "../node_modules/datatables.net-dt/css/jquery.dataTables.css"
      ],
      "scripts": ["./assets/global/plugins/jquery.min.js",
        "./assets/global/plugins/bootstrap/js/bootstrap.min.js",
        "./assets/global/plugins/js.cookie.min.js",
        "./assets/global/plugins/bootstrap-hover-dropdown/bootstrap-hover-dropdown.min.js",
        "./assets/global/plugins/jquery-slimscroll/jquery.slimscroll.min.js",
        "./assets/global/plugins/jquery.blockui.min.js",
        "./assets/global/plugins/uniform/jquery.uniform.min.js",
        "./assets/global/plugins/bootstrap-switch/js/bootstrap-switch.min.js",
        "./assets/global/plugins/moment.min.js",
        "./assets/global/plugins/bootstrap-fileinput/bootstrap-fileinput.js",
        "./assets/global/plugins/bootstrap-daterangepicker/daterangepicker.min.js",
        "./assets/global/plugins/morris/morris.min.js",
        "./assets/global/plugins/morris/raphael-min.js",     
        "./assets/global/scripts/app.min.js",
        "./assets/layouts/layout4/scripts/layout.min.js",
        "./assets/layouts/layout4/scripts/demo.min.js",
        "./assets/layouts/global/scripts/quick-sidebar.min.js",
       
        "../node_modules/datatables.net/js/jquery.dataTables.js"
        ],
      "environmentSource": "environments/environment.ts",
      "environments": {
        "dev": "environments/environment.ts",
        "prod": "environments/environment.prod.ts"
      }
    }
  ],
  "addons": [],
  "packages": [],
  "e2e": {
    "protractor": {
      "config": "./protractor.conf.js"
    }
  },
  "test": {
    "karma": {
      "config": "./karma.conf.js"
    }
  },
  "defaults": {
    "styleExt": "css",
    "prefixInterfaces": false,
    "inline": {
      "style": false,
      "template": false
    },
    "spec": {
      "class": false,
      "component": true,
      "directive": true,
      "module": false,
      "pipe": true,
      "service": true
    }
  }
}
